         run       event       nTopo   nIdTracks       nJets      nMuons
      330470  1183722158           1           0           0           0
      330470  1183722342         394         414          20           0
      330470  1183727953         532         571          13           4
      330470  1183732647         467         452          13           1
      330470  1183733040         381         285           6           1
      330470  1183734651         361         363          14           3
      330470  1183735332         406         371           9           1
      330470  1183736475         741         651          17           2
      330470  1183738728           1           0           0           0
      330470  1183738949         368         418           9           1
      330470  1183742489         152         125           2           1
      330470  1183743040         285         305           5           0
      330470  1183746343         492         465          14           0
      330470  1183746710           6           0           0           0
      330470  1183751782         239         235           5           0
      330470  1183752624         347         342           8           3
      330470  1183753006         357         377          11           3
      330470  1183754806         470         406          14           0
      330470  1183769295         342         317           8           1
      330470  1183769939         348         341          11           3
      330470  1183773832         307         197           7           0
      330470  1183775209          57           0           0           0
      330470  1183787124         431         361          11           2
      330470  1183787946         321         310           5           1
      330470  1183795329         458         333          18           0
